MODEL
MODEL_VERSION "v1998.8";
DESIGN "RAMCtrl";

/* port names and type */
INPUT S:PIN89 = A<30>;
INPUT S:PIN82 = A<29>;
INPUT S:PIN86 = A<28>;
INPUT S:PIN85 = A<27>;
INPUT S:PIN79 = A<26>;
INPUT S:PIN3 = A<25>;
INPUT S:PIN81 = A<24>;
INPUT S:PIN72 = A<20>;
INPUT S:PIN76 = A<23>;
INPUT S:PIN78 = A<21>;
INPUT S:PIN77 = A<22>;
INPUT S:PIN9 = nDS;
INPUT S:PIN1 = nAS;
INPUT S:PIN10 = RW;
INPUT S:PIN22 = clk;
INPUT S:PIN99 = reset;
INPUT S:PIN52 = A<1>;
INPUT S:PIN87 = A<31>;
INPUT S:PIN68 = A<16>;
INPUT S:PIN71 = A<17>;
INPUT S:PIN74 = A<18>;
INPUT S:PIN59 = A<19>;
INPUT S:PIN55 = A<4>;
INPUT S:PIN56 = A<3>;
INPUT S:PIN60 = A<6>;
INPUT S:PIN54 = A<5>;
INPUT S:PIN39 = IDE_WAIT;
INPUT S:PIN50 = A<2>;
INPUT S:PIN4 = SIZ<0>;
INPUT S:PIN6 = SIZ<1>;
INPUT S:PIN53 = A<0>;
INPUT S:PIN64 = A<9>;
INPUT S:PIN63 = A<10>;
INPUT S:PIN61 = A<11>;
INPUT S:PIN67 = A<12>;
INPUT S:PIN66 = A<13>;
TRIOUT S:PIN28 = D<0>;
TRIOUT S:PIN29 = D<1>;
TRIOUT S:PIN25 = D<2>;
TRIOUT S:PIN20 = D<3>;
OUTPUT S:PIN12 = DSACK<1>;
OUTPUT S:PIN96 = IDE_R;
OUTPUT S:PIN14 = BYTE<0>;
OUTPUT S:PIN15 = BYTE<1>;
OUTPUT S:PIN18 = BYTE<2>;
OUTPUT S:PIN17 = BYTE<3>;
OUTPUT S:PIN13 = DSACK<0>;
OUTPUT S:PIN97 = IDE_W;
OUTPUT S:PIN16 = ROM_OE;
OUTPUT S:PIN93 = IDE_A<0>;
OUTPUT S:PIN95 = IDE_A<1>;
OUTPUT S:PIN94 = IDE_A<2>;
OUTPUT S:PIN91 = IDE_CS<0>;
OUTPUT S:PIN92 = IDE_CS<1>;
OUTPUT S:PIN2 = IDE_DIR;
OUTPUT S:PIN40 = IO4;
OUTPUT S:PIN41 = IO5;
OUTPUT S:PIN32 = OE<0>;
OUTPUT S:PIN34 = OE<1>;
OUTPUT S:PIN30 = WE<0>;
OUTPUT S:PIN33 = WE<1>;
OUTPUT S:PIN11 = nRAM_SEL;
OUTPUT S:PIN7 = ROM_WE;
OUTPUT S:PIN42 = INT2;
OUTPUT S:PIN8 = ROM_EN;

/* timing arc definitions */
nAS_BYTE<0>_delay: DELAY nAS BYTE<0>;
RW_BYTE<0>_delay: DELAY RW BYTE<0>;
A<1>_BYTE<0>_delay: DELAY A<1> BYTE<0>;
SIZ<0>_BYTE<0>_delay: DELAY SIZ<0> BYTE<0>;
SIZ<1>_BYTE<0>_delay: DELAY SIZ<1> BYTE<0>;
A<0>_BYTE<0>_delay: DELAY A<0> BYTE<0>;
nAS_BYTE<1>_delay: DELAY nAS BYTE<1>;
RW_BYTE<1>_delay: DELAY RW BYTE<1>;
A<1>_BYTE<1>_delay: DELAY A<1> BYTE<1>;
SIZ<0>_BYTE<1>_delay: DELAY SIZ<0> BYTE<1>;
SIZ<1>_BYTE<1>_delay: DELAY SIZ<1> BYTE<1>;
A<0>_BYTE<1>_delay: DELAY A<0> BYTE<1>;
A<1>_BYTE<2>_delay: DELAY A<1> BYTE<2>;
nAS_BYTE<2>_delay: DELAY nAS BYTE<2>;
RW_BYTE<2>_delay: DELAY RW BYTE<2>;
SIZ<0>_BYTE<2>_delay: DELAY SIZ<0> BYTE<2>;
SIZ<1>_BYTE<2>_delay: DELAY SIZ<1> BYTE<2>;
A<0>_BYTE<2>_delay: DELAY A<0> BYTE<2>;
A<0>_BYTE<3>_delay: DELAY A<0> BYTE<3>;
A<1>_BYTE<3>_delay: DELAY A<1> BYTE<3>;
RW_BYTE<3>_delay: DELAY RW BYTE<3>;
nAS_BYTE<3>_delay: DELAY nAS BYTE<3>;
RW_D<0>_delay: DELAY (ENABLE_HIGH) RW D<0>;
A<19>_D<0>_delay: DELAY (ENABLE_HIGH) A<19> D<0>;
A<18>_D<0>_delay: DELAY (ENABLE_HIGH) A<18> D<0>;
A<17>_D<0>_delay: DELAY (ENABLE_HIGH) A<17> D<0>;
A<16>_D<0>_delay: DELAY (ENABLE_HIGH) A<16> D<0>;
nAS_D<0>_delay: DELAY (ENABLE_HIGH) nAS D<0>;
A<22>_D<0>_delay: DELAY (ENABLE_HIGH) A<22> D<0>;
A<21>_D<0>_delay: DELAY (ENABLE_HIGH) A<21> D<0>;
A<23>_D<0>_delay: DELAY (ENABLE_HIGH) A<23> D<0>;
A<20>_D<0>_delay: DELAY (ENABLE_HIGH) A<20> D<0>;
A<24>_D<0>_delay: DELAY (ENABLE_HIGH) A<24> D<0>;
A<25>_D<0>_delay: DELAY (ENABLE_HIGH) A<25> D<0>;
A<26>_D<0>_delay: DELAY (ENABLE_HIGH) A<26> D<0>;
A<27>_D<0>_delay: DELAY (ENABLE_HIGH) A<27> D<0>;
A<28>_D<0>_delay: DELAY (ENABLE_HIGH) A<28> D<0>;
A<29>_D<0>_delay: DELAY (ENABLE_HIGH) A<29> D<0>;
A<31>_D<0>_delay: DELAY (ENABLE_HIGH) A<31> D<0>;
A<30>_D<0>_delay: DELAY (ENABLE_HIGH) A<30> D<0>;
A<16>_D<1>_delay: DELAY (ENABLE_HIGH) A<16> D<1>;
A<18>_D<1>_delay: DELAY (ENABLE_HIGH) A<18> D<1>;
A<19>_D<1>_delay: DELAY (ENABLE_HIGH) A<19> D<1>;
A<31>_D<1>_delay: DELAY (ENABLE_HIGH) A<31> D<1>;
A<30>_D<1>_delay: DELAY (ENABLE_HIGH) A<30> D<1>;
A<29>_D<1>_delay: DELAY (ENABLE_HIGH) A<29> D<1>;
A<28>_D<1>_delay: DELAY (ENABLE_HIGH) A<28> D<1>;
A<27>_D<1>_delay: DELAY (ENABLE_HIGH) A<27> D<1>;
A<26>_D<1>_delay: DELAY (ENABLE_HIGH) A<26> D<1>;
A<25>_D<1>_delay: DELAY (ENABLE_HIGH) A<25> D<1>;
A<24>_D<1>_delay: DELAY (ENABLE_HIGH) A<24> D<1>;
A<20>_D<1>_delay: DELAY (ENABLE_HIGH) A<20> D<1>;
A<23>_D<1>_delay: DELAY (ENABLE_HIGH) A<23> D<1>;
A<21>_D<1>_delay: DELAY (ENABLE_HIGH) A<21> D<1>;
A<17>_D<1>_delay: DELAY (ENABLE_HIGH) A<17> D<1>;
RW_D<1>_delay: DELAY (ENABLE_HIGH) RW D<1>;
A<22>_D<1>_delay: DELAY (ENABLE_HIGH) A<22> D<1>;
nAS_D<1>_delay: DELAY (ENABLE_HIGH) nAS D<1>;
A<20>_D<2>_delay: DELAY (ENABLE_HIGH) A<20> D<2>;
A<24>_D<2>_delay: DELAY (ENABLE_HIGH) A<24> D<2>;
A<25>_D<2>_delay: DELAY (ENABLE_HIGH) A<25> D<2>;
A<19>_D<2>_delay: DELAY (ENABLE_HIGH) A<19> D<2>;
A<18>_D<2>_delay: DELAY (ENABLE_HIGH) A<18> D<2>;
A<17>_D<2>_delay: DELAY (ENABLE_HIGH) A<17> D<2>;
A<16>_D<2>_delay: DELAY (ENABLE_HIGH) A<16> D<2>;
A<31>_D<2>_delay: DELAY (ENABLE_HIGH) A<31> D<2>;
RW_D<2>_delay: DELAY (ENABLE_HIGH) RW D<2>;
nAS_D<2>_delay: DELAY (ENABLE_HIGH) nAS D<2>;
A<22>_D<2>_delay: DELAY (ENABLE_HIGH) A<22> D<2>;
A<21>_D<2>_delay: DELAY (ENABLE_HIGH) A<21> D<2>;
A<23>_D<2>_delay: DELAY (ENABLE_HIGH) A<23> D<2>;
A<26>_D<2>_delay: DELAY (ENABLE_HIGH) A<26> D<2>;
A<29>_D<2>_delay: DELAY (ENABLE_HIGH) A<29> D<2>;
A<28>_D<2>_delay: DELAY (ENABLE_HIGH) A<28> D<2>;
A<27>_D<2>_delay: DELAY (ENABLE_HIGH) A<27> D<2>;
A<30>_D<2>_delay: DELAY (ENABLE_HIGH) A<30> D<2>;
A<16>_D<3>_delay: DELAY (ENABLE_HIGH) A<16> D<3>;
RW_D<3>_delay: DELAY (ENABLE_HIGH) RW D<3>;
nAS_D<3>_delay: DELAY (ENABLE_HIGH) nAS D<3>;
A<21>_D<3>_delay: DELAY (ENABLE_HIGH) A<21> D<3>;
A<22>_D<3>_delay: DELAY (ENABLE_HIGH) A<22> D<3>;
A<20>_D<3>_delay: DELAY (ENABLE_HIGH) A<20> D<3>;
A<24>_D<3>_delay: DELAY (ENABLE_HIGH) A<24> D<3>;
A<23>_D<3>_delay: DELAY (ENABLE_HIGH) A<23> D<3>;
A<26>_D<3>_delay: DELAY (ENABLE_HIGH) A<26> D<3>;
A<27>_D<3>_delay: DELAY (ENABLE_HIGH) A<27> D<3>;
A<17>_D<3>_delay: DELAY (ENABLE_HIGH) A<17> D<3>;
A<18>_D<3>_delay: DELAY (ENABLE_HIGH) A<18> D<3>;
A<19>_D<3>_delay: DELAY (ENABLE_HIGH) A<19> D<3>;
A<25>_D<3>_delay: DELAY (ENABLE_HIGH) A<25> D<3>;
A<28>_D<3>_delay: DELAY (ENABLE_HIGH) A<28> D<3>;
A<29>_D<3>_delay: DELAY (ENABLE_HIGH) A<29> D<3>;
A<30>_D<3>_delay: DELAY (ENABLE_HIGH) A<30> D<3>;
A<31>_D<3>_delay: DELAY (ENABLE_HIGH) A<31> D<3>;
IDE_WAIT_DSACK<0>_delay: DELAY IDE_WAIT DSACK<0>;
A<31>_DSACK<0>_delay: DELAY A<31> DSACK<0>;
A<28>_DSACK<0>_delay: DELAY A<28> DSACK<0>;
A<27>_DSACK<0>_delay: DELAY A<27> DSACK<0>;
A<30>_DSACK<0>_delay: DELAY A<30> DSACK<0>;
A<22>_DSACK<0>_delay: DELAY A<22> DSACK<0>;
A<21>_DSACK<0>_delay: DELAY A<21> DSACK<0>;
A<23>_DSACK<0>_delay: DELAY A<23> DSACK<0>;
A<24>_DSACK<0>_delay: DELAY A<24> DSACK<0>;
A<25>_DSACK<0>_delay: DELAY A<25> DSACK<0>;
A<26>_DSACK<0>_delay: DELAY A<26> DSACK<0>;
nAS_DSACK<0>_delay: DELAY nAS DSACK<0>;
A<29>_DSACK<0>_delay: DELAY A<29> DSACK<0>;
A<28>_DSACK<1>_delay: DELAY A<28> DSACK<1>;
A<29>_DSACK<1>_delay: DELAY A<29> DSACK<1>;
nAS_DSACK<1>_delay: DELAY nAS DSACK<1>;
IDE_WAIT_DSACK<1>_delay: DELAY IDE_WAIT DSACK<1>;
A<27>_DSACK<1>_delay: DELAY A<27> DSACK<1>;
A<26>_DSACK<1>_delay: DELAY A<26> DSACK<1>;
A<25>_DSACK<1>_delay: DELAY A<25> DSACK<1>;
A<24>_DSACK<1>_delay: DELAY A<24> DSACK<1>;
A<23>_DSACK<1>_delay: DELAY A<23> DSACK<1>;
A<21>_DSACK<1>_delay: DELAY A<21> DSACK<1>;
A<22>_DSACK<1>_delay: DELAY A<22> DSACK<1>;
A<31>_DSACK<1>_delay: DELAY A<31> DSACK<1>;
A<30>_DSACK<1>_delay: DELAY A<30> DSACK<1>;
A<9>_IDE_A<0>_delay: DELAY A<9> IDE_A<0>;
A<10>_IDE_A<1>_delay: DELAY A<10> IDE_A<1>;
A<11>_IDE_A<2>_delay: DELAY A<11> IDE_A<2>;
A<12>_IDE_CS<0>_delay: DELAY A<12> IDE_CS<0>;
A<13>_IDE_CS<1>_delay: DELAY A<13> IDE_CS<1>;
nAS_IDE_DIR_delay: DELAY nAS IDE_DIR;
nAS_IDE_R_delay: DELAY nAS IDE_R;
nAS_IDE_W_delay: DELAY nAS IDE_W;
A<2>_IO4_delay: DELAY A<2> IO4;
A<3>_IO5_delay: DELAY A<3> IO5;
A<31>_OE<0>_delay: DELAY A<31> OE<0>;
A<30>_OE<0>_delay: DELAY A<30> OE<0>;
A<29>_OE<0>_delay: DELAY A<29> OE<0>;
A<28>_OE<0>_delay: DELAY A<28> OE<0>;
A<27>_OE<0>_delay: DELAY A<27> OE<0>;
A<26>_OE<0>_delay: DELAY A<26> OE<0>;
A<25>_OE<0>_delay: DELAY A<25> OE<0>;
A<24>_OE<0>_delay: DELAY A<24> OE<0>;
A<23>_OE<0>_delay: DELAY A<23> OE<0>;
A<21>_OE<0>_delay: DELAY A<21> OE<0>;
A<22>_OE<0>_delay: DELAY A<22> OE<0>;
nDS_OE<0>_delay: DELAY nDS OE<0>;
RW_OE<0>_delay: DELAY RW OE<0>;
A<27>_OE<1>_delay: DELAY A<27> OE<1>;
A<30>_OE<1>_delay: DELAY A<30> OE<1>;
A<29>_OE<1>_delay: DELAY A<29> OE<1>;
A<28>_OE<1>_delay: DELAY A<28> OE<1>;
A<23>_OE<1>_delay: DELAY A<23> OE<1>;
A<26>_OE<1>_delay: DELAY A<26> OE<1>;
A<25>_OE<1>_delay: DELAY A<25> OE<1>;
A<24>_OE<1>_delay: DELAY A<24> OE<1>;
A<22>_OE<1>_delay: DELAY A<22> OE<1>;
A<21>_OE<1>_delay: DELAY A<21> OE<1>;
RW_OE<1>_delay: DELAY RW OE<1>;
nDS_OE<1>_delay: DELAY nDS OE<1>;
A<31>_OE<1>_delay: DELAY A<31> OE<1>;
nAS_ROM_OE_delay: DELAY nAS ROM_OE;
A<30>_WE<0>_delay: DELAY A<30> WE<0>;
A<29>_WE<0>_delay: DELAY A<29> WE<0>;
A<28>_WE<0>_delay: DELAY A<28> WE<0>;
A<27>_WE<0>_delay: DELAY A<27> WE<0>;
A<26>_WE<0>_delay: DELAY A<26> WE<0>;
A<25>_WE<0>_delay: DELAY A<25> WE<0>;
A<24>_WE<0>_delay: DELAY A<24> WE<0>;
A<23>_WE<0>_delay: DELAY A<23> WE<0>;
A<21>_WE<0>_delay: DELAY A<21> WE<0>;
A<22>_WE<0>_delay: DELAY A<22> WE<0>;
nDS_WE<0>_delay: DELAY nDS WE<0>;
RW_WE<0>_delay: DELAY RW WE<0>;
A<31>_WE<0>_delay: DELAY A<31> WE<0>;
A<30>_WE<1>_delay: DELAY A<30> WE<1>;
A<29>_WE<1>_delay: DELAY A<29> WE<1>;
A<28>_WE<1>_delay: DELAY A<28> WE<1>;
A<27>_WE<1>_delay: DELAY A<27> WE<1>;
A<26>_WE<1>_delay: DELAY A<26> WE<1>;
A<25>_WE<1>_delay: DELAY A<25> WE<1>;
A<24>_WE<1>_delay: DELAY A<24> WE<1>;
A<23>_WE<1>_delay: DELAY A<23> WE<1>;
A<21>_WE<1>_delay: DELAY A<21> WE<1>;
A<22>_WE<1>_delay: DELAY A<22> WE<1>;
nDS_WE<1>_delay: DELAY nDS WE<1>;
RW_WE<1>_delay: DELAY RW WE<1>;
A<31>_WE<1>_delay: DELAY A<31> WE<1>;
A<30>_nRAM_SEL_delay: DELAY A<30> nRAM_SEL;
A<29>_nRAM_SEL_delay: DELAY A<29> nRAM_SEL;
A<28>_nRAM_SEL_delay: DELAY A<28> nRAM_SEL;
A<27>_nRAM_SEL_delay: DELAY A<27> nRAM_SEL;
A<26>_nRAM_SEL_delay: DELAY A<26> nRAM_SEL;
A<25>_nRAM_SEL_delay: DELAY A<25> nRAM_SEL;
A<24>_nRAM_SEL_delay: DELAY A<24> nRAM_SEL;
A<20>_nRAM_SEL_delay: DELAY A<20> nRAM_SEL;
A<23>_nRAM_SEL_delay: DELAY A<23> nRAM_SEL;
A<21>_nRAM_SEL_delay: DELAY A<21> nRAM_SEL;
A<22>_nRAM_SEL_delay: DELAY A<22> nRAM_SEL;
nAS_nRAM_SEL_delay: DELAY nAS nRAM_SEL;
A<31>_nRAM_SEL_delay: DELAY A<31> nRAM_SEL;
A<16>_nRAM_SEL_delay: DELAY A<16> nRAM_SEL;
A<17>_nRAM_SEL_delay: DELAY A<17> nRAM_SEL;
A<18>_nRAM_SEL_delay: DELAY A<18> nRAM_SEL;
A<19>_nRAM_SEL_delay: DELAY A<19> nRAM_SEL;
clk_D<0>_delay: DELAY (ENABLE_HIGH) clk D<0>;
clk_D<1>_delay: DELAY (ENABLE_HIGH) clk D<1>;
clk_D<2>_delay: DELAY (ENABLE_HIGH) clk D<2>;
clk_D<3>_delay: DELAY (ENABLE_HIGH) clk D<3>;
clk_DSACK<1>_delay: DELAY clk DSACK<1>;
clk_IDE_R_delay: DELAY clk IDE_R;
clk_DSACK<0>_delay: DELAY clk DSACK<0>;
clk_IDE_W_delay: DELAY clk IDE_W;
clk_ROM_OE_delay: DELAY clk ROM_OE;
clk_IDE_DIR_delay: DELAY clk IDE_DIR;
clk_OE<0>_delay: DELAY clk OE<0>;
clk_OE<1>_delay: DELAY clk OE<1>;
clk_WE<0>_delay: DELAY clk WE<0>;
clk_WE<1>_delay: DELAY clk WE<1>;
clk_nRAM_SEL_delay: DELAY clk nRAM_SEL;

/* timing check arc definitions */
A<16>_clk_setup: SETUP(POSEDGE) A<16> clk;
A<17>_clk_setup: SETUP(POSEDGE) A<17> clk;
A<18>_clk_setup: SETUP(POSEDGE) A<18> clk;
A<19>_clk_setup: SETUP(POSEDGE) A<19> clk;
A<1>_clk_setup: SETUP(POSEDGE) A<1> clk;
A<20>_clk_setup: SETUP(POSEDGE) A<20> clk;
A<21>_clk_setup: SETUP(POSEDGE) A<21> clk;
A<22>_clk_setup: SETUP(POSEDGE) A<22> clk;
A<23>_clk_setup: SETUP(POSEDGE) A<23> clk;
A<24>_clk_setup: SETUP(POSEDGE) A<24> clk;
A<25>_clk_setup: SETUP(POSEDGE) A<25> clk;
A<26>_clk_setup: SETUP(POSEDGE) A<26> clk;
A<27>_clk_setup: SETUP(POSEDGE) A<27> clk;
A<28>_clk_setup: SETUP(POSEDGE) A<28> clk;
A<29>_clk_setup: SETUP(POSEDGE) A<29> clk;
A<2>_clk_setup: SETUP(POSEDGE) A<2> clk;
A<30>_clk_setup: SETUP(POSEDGE) A<30> clk;
A<31>_clk_setup: SETUP(POSEDGE) A<31> clk;
A<3>_clk_setup: SETUP(POSEDGE) A<3> clk;
A<4>_clk_setup: SETUP(POSEDGE) A<4> clk;
A<5>_clk_setup: SETUP(POSEDGE) A<5> clk;
A<6>_clk_setup: SETUP(POSEDGE) A<6> clk;
IDE_WAIT_clk_setup: SETUP(POSEDGE) IDE_WAIT clk;
RW_clk_setup: SETUP(POSEDGE) RW clk;
nAS_clk_setup: SETUP(POSEDGE) nAS clk;
nDS_clk_setup: SETUP(POSEDGE) nDS clk;
A<16>_clk_hold: HOLD(POSEDGE) A<16> clk;
A<17>_clk_hold: HOLD(POSEDGE) A<17> clk;
A<18>_clk_hold: HOLD(POSEDGE) A<18> clk;
A<19>_clk_hold: HOLD(POSEDGE) A<19> clk;
A<1>_clk_hold: HOLD(POSEDGE) A<1> clk;
A<20>_clk_hold: HOLD(POSEDGE) A<20> clk;
A<21>_clk_hold: HOLD(POSEDGE) A<21> clk;
A<22>_clk_hold: HOLD(POSEDGE) A<22> clk;
A<23>_clk_hold: HOLD(POSEDGE) A<23> clk;
A<24>_clk_hold: HOLD(POSEDGE) A<24> clk;
A<25>_clk_hold: HOLD(POSEDGE) A<25> clk;
A<26>_clk_hold: HOLD(POSEDGE) A<26> clk;
A<27>_clk_hold: HOLD(POSEDGE) A<27> clk;
A<28>_clk_hold: HOLD(POSEDGE) A<28> clk;
A<29>_clk_hold: HOLD(POSEDGE) A<29> clk;
A<2>_clk_hold: HOLD(POSEDGE) A<2> clk;
A<30>_clk_hold: HOLD(POSEDGE) A<30> clk;
A<31>_clk_hold: HOLD(POSEDGE) A<31> clk;
A<3>_clk_hold: HOLD(POSEDGE) A<3> clk;
A<4>_clk_hold: HOLD(POSEDGE) A<4> clk;
A<5>_clk_hold: HOLD(POSEDGE) A<5> clk;
A<6>_clk_hold: HOLD(POSEDGE) A<6> clk;
IDE_WAIT_clk_hold: HOLD(POSEDGE) IDE_WAIT clk;
RW_clk_hold: HOLD(POSEDGE) RW clk;
nAS_clk_hold: HOLD(POSEDGE) nAS clk;
nDS_clk_hold: HOLD(POSEDGE) nDS clk;

ENDMODEL
